<svg fill="white" viewBox="0 0 448 512"
  xmlns="http://www.w3.org/2000/svg"><!--!Font Awesome Free 6.5.1 by @fontawesome - https://fontawesome.com License - https://fontawesome.com/license/free Copyright 2024 Fonticons, Inc.-->
  <path
    d="M0 96V416c0 35.3 28.7 64 64 64H384c35.3 0 64-28.7 64-64V96c0-35.3-28.7-64-64-64H64C28.7 32 0 60.7 0 96zm337.5 12.5l44.6 116.4 .4 1.2c5.6 16.8 7.2 35.2 2.3 52.5c-5 17.2-15.4 32.4-29.8 43.3l-.2 .1-68.4 51.2-54.1 40.9c-.5 .2-1.1 .5-1.7 .8c-2 1-4.4 2-6.7 2c-3 0-6.8-1.8-8.3-2.8l-54.2-40.9L93.5 322.3l-.4-.3-.2-.1c-14.3-10.8-24.8-26-29.7-43.3s-4.2-35.7 2.2-52.5l.5-1.2 44.7-116.4c.9-2.3 2.5-4.3 4.5-5.6c1.6-1 3.4-1.6 5.2-1.8c1.3-.7 2.1-.4 3.4 .1c.6 .2 1.2 .5 2 .7c1 .4 1.6 .9 2.4 1.5c.6 .4 1.2 1 2.1 1.5c1.2 1.4 2.2 3 2.7 4.8l29.2 92.2H285l30.2-92.2c.5-1.8 1.4-3.4 2.6-4.8s2.8-2.4 4.5-3.1c1.7-.6 3.6-.9 5.4-.7s3.6 .8 5.2 1.8c2 1.3 3.7 3.3 4.6 5.6z"/>
</svg>